[2018-05-15 13:36:58] : MEMORY ALLOC FAILED: mmap failed
[2018-05-15 13:36:58] : MEMORY ALLOC FAILED: mmap failed
[2018-05-15 13:36:58] : MEMORY ALLOC FAILED: mmap failed
[2018-05-15 13:36:58] : MEMORY ALLOC FAILED: mmap failed
[2018-05-15 13:36:58] : MEMORY ALLOC FAILED: mmap failed
-------------------------------------------------------------------
xmr-stak 2.4.3 05daedc

Brought to you by fireice_uk and psychocrypt under GPLv3.
Based on CPU mining code by wolf9466 (heavily optimized by fireice_uk).

Configurable dev donation level is set to 4.0%

You can use following keys to display reports:
'h' - hashrate
'r' - results
'c' - connection
-------------------------------------------------------------------
[2018-05-15 13:36:58] : Mining coin: monero7
[2018-05-15 13:36:58] : Starting 2x thread, affinity: 0.
[2018-05-15 13:36:58] : hwloc: memory pinned
[2018-05-15 13:36:58] : Fast-connecting to ssl://asia.cryptonight-hub.miningpoolhub.com:20580 pool ...
[2018-05-15 13:36:58] : MEMORY ALLOC FAILED: mmap failed
[2018-05-15 13:36:58] : MEMORY ALLOC FAILED: mmap failed
[2018-05-15 13:36:58] : Pool ssl://asia.cryptonight-hub.miningpoolhub.com:20580 connected. Logging in...
[2018-05-15 13:36:59] : Difficulty changed. Now: 500054.
[2018-05-15 13:36:59] : Pool logged in.
[2018-05-15 13:36:59] : New block detected.
HASHRATE REPORT - CPU
| ID |    10s |    60s |    15m |
|  0 |   (na) |   (na) |   (na) |
Totals (CPU):     0.0    0.0    0.0 H/s
-----------------------------------------------------------------
Totals (ALL):      0.0    0.0    0.0 H/s
Highest:     0.0 H/s
-----------------------------------------------------------------
